{
  "project_info": {
    "project_number": "644429113247",
    "firebase_url": "https://auth-5aef7.firebaseio.com",
    "project_id": "auth-5aef7",
    "storage_bucket": "auth-5aef7.appspot.com"
  },
  "client": [
    {
      "client_info": {
        "mobilesdk_app_id": "1:644429113247:android:35cf493a575ce7fe857faa",
        "android_client_info": {
          "package_name": "com.firebaseauth"
        }
      },
      "oauth_client": [
        {
          "client_id": "644429113247-7s445egdc7r8egnen2t01u51bg63rncm.apps.googleusercontent.com",
          "client_type": 3
        }
      ],
      "api_key": [
        {
          "current_key": "AIzaSyBTUpKER4ZsYheVkf58dEVidT8pd9VygK0"
        }
      ],
      "services": {
        "appinvite_service": {
          "other_platform_oauth_client": [
            {
              "client_id": "644429113247-7s445egdc7r8egnen2t01u51bg63rncm.apps.googleusercontent.com",
              "client_type": 3
            }
          ]
        }
      }
    },
    {
      "client_info": {
        "mobilesdk_app_id": "1:644429113247:android:9ca683ede0be7462857faa",
        "android_client_info": {
          "package_name": "com.rnx5auth"
        }
      },
      "oauth_client": [
        {
          "client_id": "644429113247-7s445egdc7r8egnen2t01u51bg63rncm.apps.googleusercontent.com",
          "client_type": 3
        }
      ],
      "api_key": [
        {
          "current_key": "AIzaSyBTUpKER4ZsYheVkf58dEVidT8pd9VygK0"
        }
      ],
      "services": {
        "appinvite_service": {
          "other_platform_oauth_client": [
            {
              "client_id": "644429113247-7s445egdc7r8egnen2t01u51bg63rncm.apps.googleusercontent.com",
              "client_type": 3
            }
          ]
        }
      }
    }
  ],
  "configuration_version": "1"
}